trip_id,arrival_time,departure_time,stop_id,stop_sequence,stop_headsign,pickup_type,drop_off_type
21736564_2535,08:51:00,08:51:00,9113,1,,0,0
21736564_2535,08:52:00,08:52:00,4664,2,,0,0
21736564_2535,08:52:00,08:52:00,4756,3,,0,0
21736564_2535,08:53:00,08:53:00,4757,4,,0,0
21736564_2535,08:53:00,08:53:00,4758,5,,0,0